# Blender v2.91.0 OBJ File: 'submarine.blend'
# www.blender.org
mtllib submarine.mtl
o Cube
v -10.936168 4.461480 -8.437701
v -10.936168 -4.560661 -8.437701
v -10.936168 4.461480 0.584440
v -10.936168 -4.560661 0.584440
v -23.702700 2.841707 -7.460006
v -23.702700 0.372266 -7.460006
v -23.702700 2.841707 -0.393255
v -23.702700 0.372266 -0.393255
v -10.936168 -3.984440 -7.861482
v -10.936168 3.885259 -7.861482
v 3.068600 -4.087839 0.193417
v 3.068600 3.988658 0.193417
v -0.813424 -4.087839 0.193417
v -0.813424 3.988658 0.193417
v -10.936168 3.885259 0.008219
v -10.936168 -3.984440 0.008219
v -10.421677 -3.984440 0.008219
v -10.421677 -3.984440 -7.861482
v -10.421677 3.885259 -7.861482
v -10.421677 3.885259 0.008219
v -10.421677 4.447594 -8.423816
v -10.421677 -4.546776 -8.423816
v -10.421677 4.447594 0.570555
v -10.421677 -4.546776 0.570555
v -1.116157 -4.546776 0.570555
v -1.116157 -4.546776 -8.423816
v -1.116157 4.447594 -8.423816
v -1.116157 4.447594 0.570555
v -22.416164 -4.560661 -8.437701
v -22.416164 -4.560661 0.584440
v -22.416164 4.461480 0.584440
v -22.416164 4.461480 -8.437701
v 6.066086 4.447594 -8.423816
v 6.066086 -4.546776 -8.423816
v 6.066086 4.447594 0.570555
v 6.066086 -4.546776 0.570555
v 8.680811 4.447594 -8.423816
v 8.680811 -4.546776 -8.423816
v 8.680811 4.447594 0.570555
v 8.680811 -4.546776 0.570555
v -0.813424 3.988658 0.570555
v -0.813424 -4.087839 0.570555
v 3.068600 3.988658 0.570555
v 3.068600 -4.087839 0.570555
v 3.371332 4.447594 -8.423816
v 3.371332 -4.546776 -8.423816
v 3.371332 4.447594 0.570555
v 3.371332 -4.546776 0.570555
v 10.904842 3.862708 -7.838929
v 10.904842 -3.961890 -7.838929
v 10.904842 3.862708 -0.014332
v 10.904842 -3.961890 -0.014332
v 10.904842 4.447594 -8.423816
v 10.904842 -4.546776 -8.423816
v 10.904842 4.447594 0.570555
v 10.904842 -4.546776 0.570555
v 11.653564 3.862708 -7.838929
v 11.653564 -3.961890 -7.838929
v 11.653564 3.862708 -0.014332
v 11.653564 -3.961890 -0.014332
v 11.653564 4.489209 -8.465430
v 11.653564 -4.588390 -8.465430
v 11.653564 4.489209 0.612169
v 11.653564 -4.588390 0.612169
v 13.253212 4.489209 -8.465430
v 13.253212 -4.588390 -8.465430
v 13.253212 4.489209 0.612169
v 13.253212 -4.588390 0.612169
v -10.854033 4.321026 -8.320921
v -10.854033 -4.414004 -8.320921
v -10.854033 4.321026 0.491255
v -10.854033 -4.414004 0.491255
v -23.518534 2.752799 -7.365979
v -23.518534 0.361942 -7.365979
v -23.518534 2.752799 -0.463688
v -23.518534 0.361942 -0.463688
v -10.854033 -3.856120 -7.758111
v -10.854033 3.763141 -7.758111
v 3.038807 -3.956228 0.109331
v 3.038807 3.863250 0.109331
v -0.812191 -3.956228 0.109331
v -0.812191 3.863250 0.109331
v -10.854033 3.763141 -0.071556
v -10.854033 -3.856120 -0.071556
v -10.343654 -3.856120 -0.071556
v -10.343654 -3.856120 -7.758111
v -10.343654 3.763141 -7.758111
v -10.343654 3.763141 -0.071556
v -10.343654 4.307581 -8.307360
v -10.343654 -4.400560 -8.307360
v -10.343654 4.307581 0.477692
v -10.343654 -4.400560 0.477692
v -1.112505 -4.400560 0.477692
v -1.112505 -4.400560 -8.307360
v -1.112505 4.307581 -8.307360
v -1.112505 4.307581 0.477692
v -22.242277 -4.414004 -8.320921
v -22.242277 -4.414004 0.491255
v -22.242277 4.321026 0.491255
v -22.242277 4.321026 -8.320921
v 6.012335 4.307581 -8.307360
v 6.012335 -4.400560 -8.307360
v 6.012335 4.307581 0.477692
v 6.012335 -4.400560 0.477692
v 8.606162 4.307581 -8.307360
v 8.606162 -4.400560 -8.307360
v 8.606162 4.307581 0.477692
v 8.606162 -4.400560 0.477692
v -0.812191 3.863250 0.477692
v -0.812191 -3.956228 0.477692
v 3.038807 3.863250 0.477692
v 3.038807 -3.956228 0.477692
v 3.339119 4.307581 -8.307360
v 3.339119 -4.400560 -8.307360
v 3.339119 4.307581 0.477692
v 3.339119 -4.400560 0.477692
v 10.812419 3.741308 -7.736084
v 10.812419 -3.834287 -7.736084
v 10.812419 3.741308 -0.093584
v 10.812419 -3.834287 -0.093584
v 10.812419 4.307581 -8.307360
v 10.812419 -4.400560 -8.307360
v 10.812419 4.307581 0.477692
v 10.812419 -4.400560 0.477692
v 11.555157 3.741308 -7.736084
v 11.555157 -3.834287 -7.736084
v 11.555157 3.741308 -0.093584
v 11.555157 -3.834287 -0.093584
v 11.555157 4.347872 -8.348005
v 11.555157 -4.440850 -8.348005
v 11.555157 4.347872 0.518337
v 11.555157 -4.440850 0.518337
v 13.142020 4.347872 -8.348005
v 13.142020 -4.440850 -8.348005
v 13.142020 4.347872 0.518337
v 13.142020 -4.440850 0.518337
vt 0.625000 0.500000
vt 0.875000 0.500000
vt 0.875000 0.750000
vt 0.625000 0.750000
vt 0.375000 0.750000
vt 0.625000 1.000000
vt 0.375000 1.000000
vt 0.625000 0.500000
vt 0.625000 0.750000
vt 0.875000 0.750000
vt 0.875000 0.500000
vt 0.125000 0.500000
vt 0.375000 0.500000
vt 0.125000 0.750000
vt 0.375000 0.750000
vt 0.625000 0.750000
vt 0.375000 0.250000
vt 0.625000 0.250000
vt 0.625000 0.750000
vt 0.375000 0.750000
vt 0.375000 0.750000
vt 0.625000 0.750000
vt 0.625000 0.500000
vt 0.625000 0.500000
vt 0.375000 0.500000
vt 0.375000 0.500000
vt 0.375000 0.500000
vt 0.375000 0.750000
vt 0.625000 0.750000
vt 0.375000 0.750000
vt 0.375000 0.500000
vt 0.625000 0.500000
vt 0.375000 0.500000
vt 0.625000 0.500000
vt 0.625000 0.750000
vt 0.625000 0.750000
vt 0.625000 0.750000
vt 0.625000 0.750000
vt 0.375000 0.750000
vt 0.375000 0.750000
vt 0.375000 0.750000
vt 0.375000 0.750000
vt 0.375000 0.750000
vt 0.375000 1.000000
vt 0.625000 1.000000
vt 0.445993 0.070993
vt 0.445993 0.179007
vt 0.375000 0.000000
vt 0.554007 0.070993
vt 0.625000 0.000000
vt 0.554007 0.179007
vt 0.375000 0.750000
vt 0.375000 0.500000
vt 0.375000 0.500000
vt 0.375000 0.750000
vt 0.625000 0.750000
vt 0.625000 0.500000
vt 0.608743 0.516257
vt 0.608743 0.733743
vt 0.608743 0.733743
vt 0.608743 0.516257
vt 0.625000 0.750000
vt 0.625000 0.750000
vt 0.625000 0.500000
vt 0.625000 0.500000
vt 0.625000 0.500000
vt 0.375000 0.500000
vt 0.375000 0.750000
vt 0.625000 0.750000
vt 0.391257 0.516257
vt 0.391257 0.733743
vt 0.608743 0.733743
vt 0.608743 0.516257
vt 0.391257 0.516257
vt 0.391257 0.733743
vt 0.391257 0.733743
vt 0.391257 0.516257
vt 0.391257 0.516257
vt 0.391257 0.733743
vt 0.608743 0.516257
vt 0.608743 0.733743
vt 0.125000 0.500000
vt 0.125000 0.750000
vt 0.375000 0.500000
vt 0.625000 0.750000
vt 0.375000 0.750000
vt 0.375000 0.250000
vt 0.625000 0.250000
vt 0.625000 0.750000
vt 0.625000 0.750000
vt 0.375000 0.750000
vt 0.375000 0.750000
vt 0.625000 0.500000
vt 0.625000 0.500000
vt 0.375000 0.500000
vt 0.375000 0.500000
vt 0.375000 0.750000
vt 0.375000 0.500000
vt 0.625000 0.750000
vt 0.375000 0.750000
vt 0.375000 0.500000
vt 0.625000 0.500000
vt 0.375000 0.500000
vt 0.625000 0.500000
vt 0.625000 0.750000
vt 0.625000 0.750000
vt 0.625000 0.750000
vt 0.625000 0.750000
vt 0.375000 0.750000
vt 0.375000 0.750000
vt 0.375000 0.750000
vt 0.375000 0.750000
vt 0.445993 0.070993
vt 0.375000 0.000000
vt 0.445993 0.179007
vt 0.554007 0.070993
vt 0.625000 0.000000
vt 0.554007 0.179007
vt 0.375000 0.750000
vt 0.375000 0.750000
vt 0.375000 0.500000
vt 0.375000 0.500000
vt 0.625000 0.500000
vt 0.625000 0.750000
vt 0.608743 0.516257
vt 0.608743 0.516257
vt 0.608743 0.733743
vt 0.608743 0.733743
vt 0.625000 0.750000
vt 0.625000 0.750000
vt 0.625000 0.500000
vt 0.625000 0.500000
vt 0.375000 0.500000
vt 0.625000 0.500000
vt 0.625000 0.750000
vt 0.375000 0.750000
vt 0.391257 0.516257
vt 0.391257 0.733743
vt 0.608743 0.516257
vt 0.608743 0.733743
vt 0.391257 0.516257
vt 0.391257 0.733743
vt 0.391257 0.733743
vt 0.391257 0.733743
vt 0.391257 0.516257
vt 0.391257 0.516257
vt 0.608743 0.733743
vt 0.608743 0.516257
vn 0.0000 1.0000 0.0000
vn 0.0000 0.0000 1.0000
vn 0.0000 -1.0000 0.0000
vn 1.0000 0.0000 0.0000
vn 0.0000 0.0000 -1.0000
vn -1.0000 0.0000 0.0000
vn -0.9676 -0.2524 0.0000
vn -0.6051 0.0000 0.7962
vn -0.6051 0.0000 -0.7962
vn -0.7831 0.6220 0.0000
vn 0.9661 0.2582 0.0000
vn 0.5991 0.0000 -0.8007
vn 0.5991 0.0000 0.8007
vn 0.7756 -0.6312 0.0000
usemtl Material
s off
f 1/1/1 32/2/1 31/3/1 3/4/1
f 4/5/2 3/4/2 31/6/2 30/7/2
f 69/8/3 71/9/3 99/10/3 100/11/3
f 29/12/3 2/13/3 4/5/3 30/14/3
f 3/4/4 4/5/4 16/15/4 15/16/4
f 29/17/5 32/18/5 1/1/5 2/13/5
f 23/19/2 24/20/2 25/21/2 28/22/2
f 21/23/1 23/19/1 28/22/1 27/24/1
f 24/20/3 22/25/3 26/26/3 25/21/3
f 25/21/3 26/26/3 46/27/3 48/28/3
f 20/29/6 17/30/6 24/20/6 23/19/6
f 18/31/6 19/32/6 21/23/6 22/25/6
f 17/30/6 18/31/6 22/25/6 24/20/6
f 22/25/5 21/23/5 27/24/5 26/26/5
f 16/15/3 9/33/3 18/31/3 17/30/3
f 9/33/5 10/34/5 19/32/5 18/31/5
f 15/16/2 16/15/2 17/30/2 20/29/2
f 19/32/6 20/29/6 23/19/6 21/23/6
f 1/1/4 3/4/4 15/16/4 10/34/4
f 4/5/4 2/13/4 9/33/4 16/15/4
f 2/13/4 1/1/4 10/34/4 9/33/4
f 43/35/3 41/36/3 14/37/3 12/38/3
f 10/34/1 15/16/1 20/29/1 19/32/1
f 41/36/4 42/39/4 13/40/4 14/37/4
f 42/39/1 44/41/1 11/42/1 13/40/1
f 72/43/5 98/44/5 99/45/5 71/9/5
f 8/46/7 6/47/7 29/17/7 30/48/7
f 7/49/8 8/46/8 30/48/8 31/50/8
f 6/47/9 5/51/9 32/18/9 29/17/9
f 5/51/10 7/49/10 31/50/10 32/18/10
f 36/52/3 34/53/3 38/54/3 40/55/3
f 27/24/1 28/22/1 47/56/1 45/57/1
f 25/21/2 48/28/2 44/41/2 42/39/2
f 26/26/5 27/24/5 45/57/5 46/27/5
f 49/58/1 51/59/1 59/60/1 57/61/1
f 35/62/2 36/52/2 40/55/2 39/63/2
f 33/64/1 35/62/1 39/63/1 37/65/1
f 34/53/5 33/64/5 37/65/5 38/54/5
f 44/41/6 43/35/6 12/38/6 11/42/6
f 48/28/2 47/56/2 43/35/2 44/41/2
f 47/56/2 28/22/2 41/36/2 43/35/2
f 28/22/2 25/21/2 42/39/2 41/36/2
f 33/64/5 34/53/5 46/27/5 45/57/5
f 36/52/2 35/62/2 47/56/2 48/28/2
f 35/62/1 33/64/1 45/57/1 47/56/1
f 34/53/3 36/52/3 48/28/3 46/27/3
f 38/54/5 37/65/5 53/66/5 54/67/5
f 39/63/2 40/55/2 56/68/2 55/69/2
f 37/65/1 39/63/1 55/69/1 53/66/1
f 40/55/3 38/54/3 54/67/3 56/68/3
f 49/58/4 50/70/4 54/67/4 53/66/4
f 52/71/4 51/59/4 55/69/4 56/68/4
f 51/59/4 49/58/4 53/66/4 55/69/4
f 50/70/4 52/71/4 56/68/4 54/67/4
f 57/61/6 59/60/6 63/72/6 61/73/6
f 50/70/5 49/58/5 57/61/5 58/74/5
f 52/71/3 50/70/3 58/74/3 60/75/3
f 51/59/2 52/71/2 60/75/2 59/60/2
f 64/76/3 62/77/3 66/78/3 68/79/3
f 58/74/6 57/61/6 61/73/6 62/77/6
f 60/75/6 58/74/6 62/77/6 64/76/6
f 59/60/6 60/75/6 64/76/6 63/72/6
f 66/78/4 65/80/4 67/81/4 68/79/4
f 63/72/2 64/76/2 68/79/2 67/81/2
f 61/73/1 63/72/1 67/81/1 65/80/1
f 62/77/5 61/73/5 65/80/5 66/78/5
f 97/82/1 98/83/1 72/43/1 70/84/1
f 71/9/6 83/85/6 84/86/6 72/43/6
f 97/87/2 70/84/2 69/8/2 100/88/2
f 91/89/5 96/90/5 93/91/5 92/92/5
f 89/93/3 95/94/3 96/90/3 91/89/3
f 92/92/1 93/91/1 94/95/1 90/96/1
f 93/91/1 116/97/1 114/98/1 94/95/1
f 88/99/4 91/89/4 92/92/4 85/100/4
f 86/101/4 90/96/4 89/93/4 87/102/4
f 85/100/4 92/92/4 90/96/4 86/101/4
f 90/96/2 94/95/2 95/94/2 89/93/2
f 84/86/1 85/100/1 86/101/1 77/103/1
f 77/103/2 86/101/2 87/102/2 78/104/2
f 83/85/5 88/99/5 85/100/5 84/86/5
f 87/102/4 89/93/4 91/89/4 88/99/4
f 69/8/6 78/104/6 83/85/6 71/9/6
f 72/43/6 84/86/6 77/103/6 70/84/6
f 70/84/6 77/103/6 78/104/6 69/8/6
f 111/105/1 80/106/1 82/107/1 109/108/1
f 78/104/3 87/102/3 88/99/3 83/85/3
f 109/108/6 82/107/6 81/109/6 110/110/6
f 110/110/3 81/109/3 79/111/3 112/112/3
f 76/113/11 98/114/11 97/87/11 74/115/11
f 75/116/12 99/117/12 98/114/12 76/113/12
f 74/115/13 97/87/13 100/88/13 73/118/13
f 73/118/14 100/88/14 99/117/14 75/116/14
f 104/119/1 108/120/1 106/121/1 102/122/1
f 95/94/3 113/123/3 115/124/3 96/90/3
f 93/91/5 110/110/5 112/112/5 116/97/5
f 94/95/2 114/98/2 113/123/2 95/94/2
f 117/125/3 125/126/3 127/127/3 119/128/3
f 103/129/5 107/130/5 108/120/5 104/119/5
f 101/131/3 105/132/3 107/130/3 103/129/3
f 102/122/2 106/121/2 105/132/2 101/131/2
f 112/112/4 79/111/4 80/106/4 111/105/4
f 116/97/5 112/112/5 111/105/5 115/124/5
f 115/124/5 111/105/5 109/108/5 96/90/5
f 96/90/5 109/108/5 110/110/5 93/91/5
f 101/131/2 113/123/2 114/98/2 102/122/2
f 104/119/5 116/97/5 115/124/5 103/129/5
f 103/129/3 115/124/3 113/123/3 101/131/3
f 102/122/1 114/98/1 116/97/1 104/119/1
f 106/121/2 122/133/2 121/134/2 105/132/2
f 107/130/5 123/135/5 124/136/5 108/120/5
f 105/132/3 121/134/3 123/135/3 107/130/3
f 108/120/1 124/136/1 122/133/1 106/121/1
f 117/125/6 121/134/6 122/133/6 118/137/6
f 120/138/6 124/136/6 123/135/6 119/128/6
f 119/128/6 123/135/6 121/134/6 117/125/6
f 118/137/6 122/133/6 124/136/6 120/138/6
f 125/126/4 129/139/4 131/140/4 127/127/4
f 118/137/2 126/141/2 125/126/2 117/125/2
f 120/138/1 128/142/1 126/141/1 118/137/1
f 119/128/5 127/127/5 128/142/5 120/138/5
f 132/143/1 136/144/1 134/145/1 130/146/1
f 126/141/4 130/146/4 129/139/4 125/126/4
f 128/142/4 132/143/4 130/146/4 126/141/4
f 127/127/4 131/140/4 132/143/4 128/142/4
f 134/145/6 136/144/6 135/147/6 133/148/6
f 131/140/5 135/147/5 136/144/5 132/143/5
f 129/139/3 133/148/3 135/147/3 131/140/3
f 130/146/2 134/145/2 133/148/2 129/139/2
