%YAML 1.1
%TAG !u! tag:unity3d.com,2011:
--- !u!114 &11400000
MonoBehaviour:
  m_ObjectHideFlags: 0
  m_CorrespondingSourceObject: {fileID: 0}
  m_PrefabInstance: {fileID: 0}
  m_PrefabAsset: {fileID: 0}
  m_GameObject: {fileID: 0}
  m_Enabled: 1
  m_EditorHideFlags: 0
  m_Script: {fileID: 11500000, guid: fca1a52fe53e2ba47b09332384ed8a46, type: 3}
  m_Name: MonkFish
  m_EditorClassIdentifier: 
  prefab: {fileID: 0}
  type: 0
  description: 
  restoreHealthValue: 16
