%YAML 1.1
%TAG !u! tag:unity3d.com,2011:
--- !u!114 &11400000
MonoBehaviour:
  m_ObjectHideFlags: 0
  m_CorrespondingSourceObject: {fileID: 0}
  m_PrefabInstance: {fileID: 0}
  m_PrefabAsset: {fileID: 0}
  m_GameObject: {fileID: 0}
  m_Enabled: 1
  m_EditorHideFlags: 0
  m_Script: {fileID: 11500000, guid: 71009407f698e8a44b8f54ce99f6f54f, type: 3}
  m_Name: PistolAmmo
  m_EditorClassIdentifier: 
  itemID: 4
  itemName: Pistol Ammo
  itemDesc: Ammooo
  nonEdibleType: 0
  value: 10
